{
  "start_time":null,
  "end_time":"2011-09-09T22:30:03+0000",
  "data":[{
    "id":"6002647798444/stats/0/1315607403",
    "impressions":232641,
    "clicks":534,
    "spent":18885,
    "social_impressions":22676,
    "social_clicks":81,
    "social_spent":1548,
    "unique_impressions":0,
    "social_unique_impressions":0,
    "unique_clicks":0,
    "social_unique_clicks":0,
    "actions":140,
    "connections":0,
    "adgroup_id":6002647798444,
    "start_time":null,
    "end_time":"2011-09-09T22:30:03+0000"
  }, {
    "id":"6002867067888/stats/0/1315607403",
    "impressions":0,
    "clicks":0,
    "spent":0,
    "social_impressions":0,
    "social_clicks":0,
    "social_spent":0,
    "unique_impressions":0,
    "social_unique_impressions":0,
    "unique_clicks":0,
    "social_unique_clicks":0,
    "actions":0,
    "connections":0,
    "adgroup_id":6002867067888,
    "start_time":null,
    "end_time":"2011-09-09T22:30:03+0000"
  }, {
    "id":"6002935967666/stats/0/1315607403",
    "impressions":0,
    "clicks":0,
    "spent":0,
    "social_impressions":0,
    "social_clicks":0,
    "social_spent":0,
    "unique_impressions":0,
    "social_unique_impressions":0,
    "unique_clicks":0,
    "social_unique_clicks":0,
    "actions":0,
    "connections":0,
    "adgroup_id":6002935967666,
    "start_time":null,
    "end_time":"2011-09-09T22:30:03+0000"
  }],
  "count":3081,
  "limit":3,
  "offset":0,
  "paging": {
    "next":"https://graph.facebook.com/act_111222333/adgroupstats?access_token=aabbccdd&offset=100"
  }
}
